{
  "project_info": {
    "project_number": "434368992083",
    "firebase_url": "https://purohit-2018.firebaseio.com",
    "project_id": "purohit-2018",
    "storage_bucket": "purohit-2018.appspot.com"
  },
  "client": [
    {
      "client_info": {
        "mobilesdk_app_id": "1:434368992083:android:90ef9371f4edf27e",
        "android_client_info": {
          "package_name": "com.codegenstudios.purohit"
        }
      },
      "oauth_client": [
        {
          "client_id": "434368992083-bdtn7sfn0beceusmbthq6bvipj74a2a2.apps.googleusercontent.com",
          "client_type": 3
        }
      ],
      "api_key": [
        {
          "current_key": "AIzaSyAZCE9Ql3Y1tPubhekY6xWze-M4GBsbM0s"
        }
      ],
      "services": {
        "analytics_service": {
          "status": 1
        },
        "appinvite_service": {
          "status": 1,
          "other_platform_oauth_client": []
        },
        "ads_service": {
          "status": 2
        }
      }
    },
    {
      "client_info": {
        "mobilesdk_app_id": "1:434368992083:android:c24c8c0fdafd7c4b",
        "android_client_info": {
          "package_name": "panditapp.sribarati.com.panditapp"
        }
      },
      "oauth_client": [
        {
          "client_id": "434368992083-bdtn7sfn0beceusmbthq6bvipj74a2a2.apps.googleusercontent.com",
          "client_type": 3
        }
      ],
      "api_key": [
        {
          "current_key": "AIzaSyAZCE9Ql3Y1tPubhekY6xWze-M4GBsbM0s"
        }
      ],
      "services": {
        "analytics_service": {
          "status": 1
        },
        "appinvite_service": {
          "status": 1,
          "other_platform_oauth_client": []
        },
        "ads_service": {
          "status": 2
        }
      }
    }
  ],
  "configuration_version": "1"
}